{
	"apiVersion": "%s",
	"kind": "%s",
	"metadata": {
		"labels": {
			"prometheus": "kube-prometheus",
			"release": "kube-prometheus"
		},
		"name": "exporter-federation",
		"namespace": "%s"
	},
	"spec": {
		"endpoints": [
			{
				"basicAuth": {
					"password": {
						"key": "password",
						"name": "%s"
					},
					"username": {
						"key": "username",
						"name": "%s"
					}
				},
				"honorLabels": true,
				"interval": "15s",
				"params": {
					"match[]": [
						"workload_log_keyword_count{cluster_name='%s'}",
						"workload_event_reason_count{cluster_name='%s'}"
					]
				},
				"path": "/federate",
				"port": "%s",
				"scheme": "%s",
				"tlsConfig": {
					"insecureSkipVerify": true
				},
				"relabelings": [
					{
						"replacement": "%s",
						"targetLabel": "__address__"
					}
				]
			}
		],
		"namespaceSelector": {
			"matchNames": [
				"%s"
			]
		},
		"selector": {
			"matchLabels": {
				"app": "exporter-federation",
				"component": "federation"
			}
		}
	}
}
